{
    "ListTitleContract": [
        
        {
            "Code": "MASTER",
            "Description": "MASTER",
            "Description_Arabic": ""
        },
        {
            "Code": "MR",
            "Description": "MR",
            "Description_Arabic": "السيد"
        },
        {
            "Code": "MRS",
            "Description": "MRS",
            "Description_Arabic": "السيدة"
        },
        {
            "Code": "MS",
            "Description": "MS",
            "Description_Arabic": "الأنسة"
        }
    ],
    "ResponseCode": "Y",
    "Result": "Success"
}
